Data Wrangling
…
select is used to select certain variables in the data frame.

select(lapd, year, base_pay)

# A tibble: 68,564 × 2
    year base_pay
   <dbl>    <dbl>
 1  2013  105765.
 2  2013   47662.
 3  2013  101288.
 4  2013  118087.
 5  2013   90322.
 6  2013   62770.
 7  2013   93718.
 8  2013       0 
 9  2013   51246.
10  2013   74227.
# ℹ 68,554 more rows

lapd %>% 
  select(year, base_pay)

# A tibble: 68,564 × 2
    year base_pay
   <dbl>    <dbl>
 1  2013  105765.
 2  2013   47662.
 3  2013  101288.
 4  2013  118087.
 5  2013   90322.
 6  2013   62770.
 7  2013   93718.
 8  2013       0 
 9  2013   51246.
10  2013   74227.
# ℹ 68,554 more rows

select can also be used to drop certain variables if used with a negative sign.

select(lapd, -row_id, -department_title)

# A tibble: 68,564 × 33
    year payroll_department record_number job_class_title        employment_type
   <dbl>              <dbl>         <dbl> <chr>                  <chr>          
 1  2013               4301    1000027830 Police Detective II    Full Time      
 2  2013               4302    1000155488 Clerk Typist           Full Time      
 3  2013               4301    1000194958 Police Sergeant I      Full Time      
 4  2013               4301    1000232317 Police Lieutenant I    Full Time      
 5  2013               4302    1000329284 Principal Storekeeper  Full Time      
 6  2013               4302    1001124320 Police Service Repres… Full Time      
 7  2013               4301    1001221822 Police Officer III     Full Time      
 8  2013               4301    1001243583 Police Sergeant I      Full Time      
 9  2013               4301    1001317832 Police Officer II      Full Time      
10  2013               4301     100162910 Police Officer II      Full Time      
# ℹ 68,554 more rows
# ℹ 28 more variables: hourly_or_event_rate <dbl>,
#   projected_annual_salary <dbl>, q1_payments <dbl>, q2_payments <dbl>,
#   q3_payments <dbl>, q4_payments <dbl>, payments_over_base_pay <dbl>,
#   percent_over_base_pay <dbl>, total_payments <dbl>, base_pay <dbl>,
#   permanent_bonus_pay <dbl>, longevity_bonus_pay <dbl>,
#   temporary_bonus_pay <dbl>, lump_sum_pay <dbl>, overtime_pay <dbl>, …

Selection helpers

starts_with()

ends_with()

contains()

select(lapd, starts_with("q"))

# A tibble: 68,564 × 4
   q1_payments q2_payments q3_payments q4_payments
         <dbl>       <dbl>       <dbl>       <dbl>
 1      24931.      29182.      26546.      29605.
 2      11344.      13212.      11508.      13443.
 3      24184       28327.      28744.      33225.
 4      29391.      36591.      32905.      37234.
 5      20813       24136       21518.      25231.
 6      16057.      17927.      14150.      17052.
 7      22162.      25664.      23404.      24586.
 8          0           0         331.          0 
 9      11941.      14330.      13404.      14537.
10      17046.      20457.      18777.      21371.
# ℹ 68,554 more rows

select(lapd, ends_with("pay"))

# A tibble: 68,564 × 8
   payments_over_base_pay percent_over_base_pay base_pay permanent_bonus_pay
                    <dbl>                 <dbl>    <dbl>               <dbl>
 1                  4499.                     0  105765.               3174.
 2                  1845.                     0   47662.                  0 
 3                 13192.                     0  101288.               7364.
 4                 18035.                     0  118087.               7087.
 5                  1376.                     0   90322.                  0 
 6                  2415.                     0   62770.                  0 
 7                  2099.                     0   93718.                866.
 8                   331.                     0       0                   0 
 9                  2967.                     0   51246.               1540.
10                  3424.                     0   74227.               2233.
# ℹ 68,554 more rows
# ℹ 4 more variables: longevity_bonus_pay <dbl>, temporary_bonus_pay <dbl>,
#   lump_sum_pay <dbl>, overtime_pay <dbl>

select(lapd, contains("pay"))

# A tibble: 68,564 × 17
   payroll_department q1_payments q2_payments q3_payments q4_payments
                <dbl>       <dbl>       <dbl>       <dbl>       <dbl>
 1               4301      24931.      29182.      26546.      29605.
 2               4302      11344.      13212.      11508.      13443.
 3               4301      24184       28327.      28744.      33225.
 4               4301      29391.      36591.      32905.      37234.
 5               4302      20813       24136       21518.      25231.
 6               4302      16057.      17927.      14150.      17052.
 7               4301      22162.      25664.      23404.      24586.
 8               4301          0           0         331.          0 
 9               4301      11941.      14330.      13404.      14537.
10               4301      17046.      20457.      18777.      21371.
# ℹ 68,554 more rows
# ℹ 12 more variables: payments_over_base_pay <dbl>,
#   percent_over_base_pay <dbl>, total_payments <dbl>, base_pay <dbl>,
#   permanent_bonus_pay <dbl>, longevity_bonus_pay <dbl>,
#   temporary_bonus_pay <dbl>, lump_sum_pay <dbl>, overtime_pay <dbl>,
#   other_pay_adjustments <dbl>, other_pay_payroll_explorer <dbl>,
#   pay_grade <chr>
…
filter() subsetting rows based on a condition.

The data below includes rows when the recorded year is 2018.

filter(lapd, year == 2018)

# A tibble: 14,824 × 35
   row_id            year department_title payroll_department record_number
   <chr>            <dbl> <chr>                         <dbl>         <dbl>
 1 8-1000027830ctFu  2018 Police (LAPD)                  4301    1000027830
 2 8-1000194958ctFu  2018 Police (LAPD)                  4301    1000194958
 3 8-1000232317ctFu  2018 Police (LAPD)                  4301    1000232317
 4 8-1001124320ctFu  2018 Police (LAPD)                  4302    1001124320
 5 8-1001221822ctFu  2018 Police (LAPD)                  4301    1001221822
 6 8-1001317832ctFu  2018 Police (LAPD)                  4301    1001317832
 7 8-100162910ctFu   2018 Police (LAPD)                  4301     100162910
 8 8-1001675957ctFu  2018 Police (LAPD)                  4301    1001675957
 9 8-1001884819ctFu  2018 Police (LAPD)                  4302    1001884819
10 8-1001893163ctFu  2018 Police (LAPD)                  4302    1001893163
# ℹ 14,814 more rows
# ℹ 30 more variables: job_class_title <chr>, employment_type <chr>,
#   hourly_or_event_rate <dbl>, projected_annual_salary <dbl>,
#   q1_payments <dbl>, q2_payments <dbl>, q3_payments <dbl>, q4_payments <dbl>,
#   payments_over_base_pay <dbl>, percent_over_base_pay <dbl>,
#   total_payments <dbl>, base_pay <dbl>, permanent_bonus_pay <dbl>,
#   longevity_bonus_pay <dbl>, temporary_bonus_pay <dbl>, lump_sum_pay <dbl>, …
…
&
and

|
or

Q. According to datausa.io Los Angeles had a median household income of $62474 in 2018. How many LAPD staff members had a base pay higher than $62474 in year 2018 according to this data?

Median household income is not the same thing as median employee income. Our aim is data wrangling and not necessarily statistical analysis for now.

lapd %>% 
  filter(year == 2018 & base_pay > 62474)

# A tibble: 11,690 × 35
   row_id            year department_title payroll_department record_number
   <chr>            <dbl> <chr>                         <dbl>         <dbl>
 1 8-1000027830ctFu  2018 Police (LAPD)                  4301    1000027830
 2 8-1000194958ctFu  2018 Police (LAPD)                  4301    1000194958
 3 8-1000232317ctFu  2018 Police (LAPD)                  4301    1000232317
 4 8-1001124320ctFu  2018 Police (LAPD)                  4302    1001124320
 5 8-1001221822ctFu  2018 Police (LAPD)                  4301    1001221822
 6 8-1001317832ctFu  2018 Police (LAPD)                  4301    1001317832
 7 8-100162910ctFu   2018 Police (LAPD)                  4301     100162910
 8 8-1001675957ctFu  2018 Police (LAPD)                  4301    1001675957
 9 8-1001884819ctFu  2018 Police (LAPD)                  4302    1001884819
10 8-1001893163ctFu  2018 Police (LAPD)                  4302    1001893163
# ℹ 11,680 more rows
# ℹ 30 more variables: job_class_title <chr>, employment_type <chr>,
#   hourly_or_event_rate <dbl>, projected_annual_salary <dbl>,
#   q1_payments <dbl>, q2_payments <dbl>, q3_payments <dbl>, q4_payments <dbl>,
#   payments_over_base_pay <dbl>, percent_over_base_pay <dbl>,
#   total_payments <dbl>, base_pay <dbl>, permanent_bonus_pay <dbl>,
#   longevity_bonus_pay <dbl>, temporary_bonus_pay <dbl>, lump_sum_pay <dbl>, …

lapd %>% 
  filter(year == 2018 & base_pay > 62474) %>% 
  nrow()

[1] 11690

Q. How many observations are available between 2013 and 2015 including 2013 and 2015?

lapd %>% 
  filter(year >= 2013 & year <= 2015)

# A tibble: 40,227 × 35
   row_id            year department_title payroll_department record_number
   <chr>            <dbl> <chr>                         <dbl>         <dbl>
 1 3-1000027830ctFu  2013 Police (LAPD)                  4301    1000027830
 2 3-1000155488ctFu  2013 Police (LAPD)                  4302    1000155488
 3 3-1000194958ctFu  2013 Police (LAPD)                  4301    1000194958
 4 3-1000232317ctFu  2013 Police (LAPD)                  4301    1000232317
 5 3-1000329284ctFu  2013 Police (LAPD)                  4302    1000329284
 6 3-1001124320ctFu  2013 Police (LAPD)                  4302    1001124320
 7 3-1001221822ctFu  2013 Police (LAPD)                  4301    1001221822
 8 3-1001243583ctFu  2013 Police (LAPD)                  4301    1001243583
 9 3-1001317832ctFu  2013 Police (LAPD)                  4301    1001317832
10 3-100162910ctFu   2013 Police (LAPD)                  4301     100162910
# ℹ 40,217 more rows
# ℹ 30 more variables: job_class_title <chr>, employment_type <chr>,
#   hourly_or_event_rate <dbl>, projected_annual_salary <dbl>,
#   q1_payments <dbl>, q2_payments <dbl>, q3_payments <dbl>, q4_payments <dbl>,
#   payments_over_base_pay <dbl>, percent_over_base_pay <dbl>,
#   total_payments <dbl>, base_pay <dbl>, permanent_bonus_pay <dbl>,
#   longevity_bonus_pay <dbl>, temporary_bonus_pay <dbl>, lump_sum_pay <dbl>, …
…
Moving forward we are only going to focus on year 2018, and use job_class_title, employment_type, and base_pay. Let’s clean our data accordingly and move on with the smaller lapd data that we need.

lapd %>% 
  filter(year == 2018) %>% 
  select(job_class_title, 
         employment_type, 
         base_pay)

# A tibble: 14,824 × 3
   job_class_title                  employment_type base_pay
   <chr>                            <chr>              <dbl>
 1 Police Detective II              Full Time        119322.
 2 Police Sergeant I                Full Time        113271.
 3 Police Lieutenant II             Full Time        148116 
 4 Police Service Representative II Full Time         78677.
 5 Police Officer III               Full Time        109374.
 6 Police Officer II                Full Time         95002.
 7 Police Officer II                Full Time         95379.
 8 Police Officer II                Full Time         95388.
 9 Equipment Mechanic               Full Time         80496 
10 Detention Officer                Full Time         69640 
# ℹ 14,814 more rows
…
Rows: 14,824
Columns: 3
$ job_class_title <chr> "Police Detective II", "Police Sergeant I", "Police Li…
$ employment_type <chr> "Full Time", "Full Time", "Full Time", "Full Time", "F…
$ base_pay        <dbl> 119321.60, 113270.70, 148116.00, 78676.87, 109373.63, …

Goal:

Create a new variable called base_pay_k that represents base_pay in thousand dollars.

lapd %>% 
  mutate(base_pay_k = base_pay/1000)

# A tibble: 14,824 × 4
   job_class_title                  employment_type base_pay base_pay_k
   <chr>                            <chr>              <dbl>      <dbl>
 1 Police Detective II              Full Time        119322.      119. 
 2 Police Sergeant I                Full Time        113271.      113. 
 3 Police Lieutenant II             Full Time        148116       148. 
 4 Police Service Representative II Full Time         78677.       78.7
 5 Police Officer III               Full Time        109374.      109. 
 6 Police Officer II                Full Time         95002.       95.0
 7 Police Officer II                Full Time         95379.       95.4
 8 Police Officer II                Full Time         95388.       95.4
 9 Equipment Mechanic               Full Time         80496        80.5
10 Detention Officer                Full Time         69640        69.6
# ℹ 14,814 more rows
…
lapd %>% 
  filter(base_pay == 62474)

# A tibble: 0 × 3
# ℹ 3 variables: job_class_title <chr>, employment_type <chr>, base_pay <dbl>

lapd %>% 
  mutate(base_pay_level = case_when(
    base_pay < 0 ~ "Less than 0", 
    base_pay == 0 ~ "No Income",
    base_pay < 62474 & base_pay > 0 ~ "Less than Median, Greater than 0",
    base_pay > 62474 ~ "Greater than Median")) 

# A tibble: 14,824 × 4
   job_class_title                  employment_type base_pay base_pay_level     
   <chr>                            <chr>              <dbl> <chr>              
 1 Police Detective II              Full Time        119322. Greater than Median
 2 Police Sergeant I                Full Time        113271. Greater than Median
 3 Police Lieutenant II             Full Time        148116  Greater than Median
 4 Police Service Representative II Full Time         78677. Greater than Median
 5 Police Officer III               Full Time        109374. Greater than Median
 6 Police Officer II                Full Time         95002. Greater than Median
 7 Police Officer II                Full Time         95379. Greater than Median
 8 Police Officer II                Full Time         95388. Greater than Median
 9 Equipment Mechanic               Full Time         80496  Greater than Median
10 Detention Officer                Full Time         69640  Greater than Median
# ℹ 14,814 more rows

We can’t really see what we have created

lapd %>% 
  mutate(base_pay_level = case_when(
    base_pay < 0 ~ "Less than 0", 
    base_pay == 0 ~ "No Income",
    base_pay < 62474 & base_pay > 0 ~ "Less than Median, Greater than 0",
    base_pay > 62474 ~ "Greater than Median")) %>% 
  select(base_pay_level)

# A tibble: 14,824 × 1
   base_pay_level     
   <chr>              
 1 Greater than Median
 2 Greater than Median
 3 Greater than Median
 4 Greater than Median
 5 Greater than Median
 6 Greater than Median
 7 Greater than Median
 8 Greater than Median
 9 Greater than Median
10 Greater than Median
# ℹ 14,814 more rows
…
Rows: 14,824
Columns: 3
$ job_class_title <chr> "Police Detective II", "Police Sergeant I", "Police Li…
$ employment_type <chr> "Full Time", "Full Time", "Full Time", "Full Time", "F…
$ base_pay        <dbl> 119321.60, 113270.70, 148116.00, 78676.87, 109373.63, …

Goal:

Make job_class_title and employment_type factor variables.

lapd %>% 
  mutate(employment_type = as.factor(employment_type),
         job_class_title = as.factor(job_class_title)) 

# A tibble: 14,824 × 3
   job_class_title                  employment_type base_pay
   <fct>                            <fct>              <dbl>
 1 Police Detective II              Full Time        119322.
 2 Police Sergeant I                Full Time        113271.
 3 Police Lieutenant II             Full Time        148116 
 4 Police Service Representative II Full Time         78677.
 5 Police Officer III               Full Time        109374.
 6 Police Officer II                Full Time         95002.
 7 Police Officer II                Full Time         95379.
 8 Police Officer II                Full Time         95388.
 9 Equipment Mechanic               Full Time         80496 
10 Detention Officer                Full Time         69640 
# ℹ 14,814 more rows
…
Word of caution

The functions clean_names(), select(), filter(), mutate() all take a data frame as the first argument. Even though we do not see it, the data frame is piped through from the previous step of code at each step. When we use these functions without the %>% we have to include the data frame explicitly.

Data frame is used as the first argument

clean_names(lapd)

# A tibble: 14,824 × 4
   job_class_title                  employment_type base_pay base_pay_level     
   <fct>                            <fct>              <dbl> <chr>              
 1 Police Detective II              Full Time        119322. Greater than Median
 2 Police Sergeant I                Full Time        113271. Greater than Median
 3 Police Lieutenant II             Full Time        148116  Greater than Median
 4 Police Service Representative II Full Time         78677. Greater than Median
 5 Police Officer III               Full Time        109374. Greater than Median
 6 Police Officer II                Full Time         95002. Greater than Median
 7 Police Officer II                Full Time         95379. Greater than Median
 8 Police Officer II                Full Time         95388. Greater than Median
 9 Equipment Mechanic               Full Time         80496  Greater than Median
10 Detention Officer                Full Time         69640  Greater than Median
# ℹ 14,814 more rows

Data frame is piped

lapd %>% 
  clean_names()

# A tibble: 14,824 × 4
   job_class_title                  employment_type base_pay base_pay_level     
   <fct>                            <fct>              <dbl> <chr>              
 1 Police Detective II              Full Time        119322. Greater than Median
 2 Police Sergeant I                Full Time        113271. Greater than Median
 3 Police Lieutenant II             Full Time        148116  Greater than Median
 4 Police Service Representative II Full Time         78677. Greater than Median
 5 Police Officer III               Full Time        109374. Greater than Median
 6 Police Officer II                Full Time         95002. Greater than Median
 7 Police Officer II                Full Time         95379. Greater than Median
 8 Police Officer II                Full Time         95388. Greater than Median
 9 Equipment Mechanic               Full Time         80496  Greater than Median
10 Detention Officer                Full Time         69640  Greater than Median
# ℹ 14,814 more rows
…
Q. What is the median salary for each employment type?

lapd %>% 
  group_by(employment_type)

# A tibble: 14,824 × 4
# Groups:   employment_type [3]
   job_class_title                  employment_type base_pay base_pay_level     
   <fct>                            <fct>              <dbl> <chr>              
 1 Police Detective II              Full Time        119322. Greater than Median
 2 Police Sergeant I                Full Time        113271. Greater than Median
 3 Police Lieutenant II             Full Time        148116  Greater than Median
 4 Police Service Representative II Full Time         78677. Greater than Median
 5 Police Officer III               Full Time        109374. Greater than Median
 6 Police Officer II                Full Time         95002. Greater than Median
 7 Police Officer II                Full Time         95379. Greater than Median
 8 Police Officer II                Full Time         95388. Greater than Median
 9 Equipment Mechanic               Full Time         80496  Greater than Median
10 Detention Officer                Full Time         69640  Greater than Median
# ℹ 14,814 more rows
…
